{
  "id" : "1a2ec74a-2b55-4e0f-86ea-9dfc14b60f09",
  "request" : {
    "url" : "/api/vocabulary/3fa85f64-5717-4562-b3fc-2c963f66afa6",
    "method" : "PUT",
    "headers" : {
      "Content-Type" : {
        "matches" : "application/json.*"
      }
    },
    "bodyPatterns" : [ {
      "matchesJsonPath" : "$[*][?(@.['vocabulary_name'] == 'vocabulary_name')]"
    }, {
      "matchesJsonPath" : "$[*][?(@.['system_name'] == 'system_name')]"
    }, {
      "matchesJsonPath" : "$[*][?(@.['system'] == true)]"
    }, {
      "matchesJsonPath" : "$[*].['vocabulary_content'][*][?(@.['item_id'] == '3fa85f64-5717-4562-b3fc-2c963f66afa6')]"
    }, {
      "matchesJsonPath" : "$[*].['vocabulary_content'][*][?(@.['name'] == 'name')]"
    }, {
      "matchesJsonPath" : "$[*].['vocabulary_content'][*][?(@.['value'] == 'value')]"
    } ]
  },
  "response" : {
    "status" : 200,
    "body" : "{\"result\":\"OK\"}",
    "headers" : {
      "Content-Type" : "application/json"
    },
    "transformers" : [ "response-template", "spring-cloud-contract" ]
  },
  "uuid" : "1a2ec74a-2b55-4e0f-86ea-9dfc14b60f09"
}
